{
    "date": [
        "22-28 Mar",
        "22-28 Mar",
        "22-28 Mar",
        "22-28 Mar",
        "22-28 Mar",
        "22-28 Mar",
        "22-28 Mar",
        "22-28 Mar",
        "22-28 Mar",
        "22-28 Mar",
        "22-28 Mar",
        "22-28 Mar"
    ],
    "loudness": [
        -20.9547,
        -20.9547,
        -20.9547,
        -20.9547,
        -20.9547,
        -20.9547,
        -20.9547,
        -20.9547,
        -20.9547,
        -20.9547,
        -20.9547,
        -20.9547
    ],
    "pvq": [
        4.46144,
        4.46144,
        4.46144,
        4.46144,
        4.46144,
        4.46144,
        4.46144,
        4.46144,
        4.46144,
        4.46144,
        4.46144,
        4.46144
    ]
}