{
    "date": [
        "22-28 Mar",
        "22-28 Mar",
        "22-28 Mar",
        "22-28 Mar",
        "22-28 Mar",
        "22-28 Mar",
        "26-01 Apr",
        "26-01 Apr",
        "26-01 Apr",
        "26-01 Apr",
        "26-01 Apr",
        "26-01 Apr"
    ],
    "loudness": [
        -20.9547,
        -20.9547,
        -20.9547,
        -20.9547,
        -20.9547,
        -20.9547,
        -20.92118,
        -20.92118,
        -20.92118,
        -20.92118,
        -20.92118,
        -20.92118
    ],
    "pvq": [
        4.46144,
        4.46144,
        4.46144,
        4.46144,
        4.46144,
        4.46144,
        4.46275,
        4.46275,
        4.46275,
        4.46275,
        4.46275,
        4.46275
    ]
}