{
    "date": [
        "30-05 Nov",
        "30-05 Nov",
        "30-05 Nov",
        "30-05 Nov",
        "30-05 Nov",
        "30-05 Nov",
        "30-05 Nov",
        "30-05 Nov",
        "30-05 Nov",
        "30-05 Nov",
        "30-05 Nov",
        "30-05 Nov"
    ],
    "loudness": [
        -20.90294,
        -20.90294,
        -20.90294,
        -20.90294,
        -20.90294,
        -20.90294,
        -20.90294,
        -20.90294,
        -20.90294,
        -20.90294,
        -20.90294,
        -20.90294
    ],
    "pvq": [
        4.42033,
        4.42033,
        4.42033,
        4.42033,
        4.42033,
        4.42033,
        4.42033,
        4.42033,
        4.42033,
        4.42033,
        4.42033,
        4.42033
    ],
    "qoe": [
        0,
        0,
        0,
        0,
        0,
        0,
        0,
        0,
        0,
        0,
        99.98542,
        99.98542
    ]
}